{
  "hosting": {
    "public": "qa-ui/dist",
    "ignore": [
      "./qa-ui/firebase.json",
      "**/.*",
      "**/node_modules/**"
    ],
    "rewrites": [
      {
        "source": "!/**/*(main|polyfills|runtime|styles).*.*(js|css)",
        "destination": "/index.html"
      }
    ]
  }
}
